t    p    Best      Mean      Mean exploit        Mean explore
2    4    9.0       11,52     119,09 (26,12%)     341,71 (73,88%)
2    5    11.0      13,82     119,37 (21,63%)     433,43 (78,37%)
2    6    14.0      15,32     112,36 (18,37%)     500,44 (81,63%)
2    7    15.0      17,01     110,72 (16,29%)     569,68 (83,71%)
2    8    17.0      18,28     104,20 (14,27%)     627,00 (85,73%)
2    9    18.0      19,36     107,42 (13,89%)     666,98 (86,11%)
2    10   19.0      20,23     111,24 (13,75%)     697,96 (86,25%)
2    11   20.0      21,39     108,80 (12,73%)     746,80 (87,27%)
2    12   21.0      22,32     112,37 (12,59%)     780,43 (87,41%)

t    p    Best      Mean      Mean exploit        Mean explore
3    5    39.0      42,17     389,02 (23,09%)     1297,78 (76,91%)
3    6    46.0      49,96     324,61 (16,26%)     1674,19 (83,74%)
3    7    55.0      57,50     317,62 (13,81%)     1983,18 (86,19%)
3    8    61.0      64,20     304,60 (11,86%)     2265,80 (88,14%)
3    9    67.0      70,44     303,58 (10,78%)     2514,02 (89,22%)
3    10   73.0      75,91     300,64 (09,91%)     2735,76 (90,09%)
3    11   79.0      81,68     297,96 (09,12%)     2969,64 (90,88%)
3    12   83.0      86,35     293,78 (08,51%)     3161,42 (91,49%)

t    p    Best      Mean      Mean exploit        Mean explore
4    6    137.0     143,42    1201,40 (20,75%)    4593,00 (79,25%)
4    7    169.0     175,12    1101,59 (15,64%)    5942,41 (84,36%)
4    8    199.0     205,36    1039,19 (12,60%)    7214,81 (87,40%)
4    9    226.0     233,72    997,40 (10,61%)     8408,20 (89,39%)
4    10   254.0     260,36    980,91 (09,39%)     9470,29 (90,61%)
4    11   279.0     285,63    957,45 (08,34%)     10519,75 (91,66%)
4    12   302.0     309,16    943,24 (07,61%)     11458,36 (92,39%)
