ID        Best      Mean      Mean exploit        Mean explore
VCA1      22.0      24,67     106,45 (10,79%)     880,51 (89,21%)
VCA2      27.0      30,54     151,08 (12,31%)     1072,12 (87,69%)
VCA3      29.0      33,14     116,72 (08,81%)     1209,69 (91,19%)
VCA4      32.0      35,43     110,68 (07,81%)     1307,48 (92,19%)
VCA5      31.0      36,79     114,60 (07,79%)     1358,18 (92,21%)
VCA6      40.0      44,25     111,27 (06,29%)     1659,44 (93,71%)
VCA7      46.0      51,30     116,26 (05,67%)     1936,45 (94,33%)
VCA8      56.0      58,35     124,10 (05,32%)     2209,90 (94,68%)
VCA9      81.0      81,59     1259,05 (37,85%)    2071,75 (62,15%)
VCA10     97.0      104,40    905,83 (21,47%)     3322,17 (78,53%)
VCA11     167.0     174,70    511,59 (07,29%)     6507,61 (92,71%)
